{
  /* Visit https://firebase.google.com/docs/database/security to learn more about security rules. */
  "rules": {
    "com_list":{
      ".read":"auth!=null",
      ".write":"auth!=null"
    },
    ".read": false,
    ".write": false
  }
}